ALU/ALU.sim/sim_1/behav/xsim/simulate.log
Time resolution is 1 ps
T=0: prog_mode=0 tx=1 rx=1 data_out=00 wr_en=0 tx_busy=0 tx_done=0
=== Test 1: Activación de eco ===
T=200000: prog_mode=0 tx=1 rx=0 data_out=00 wr_en=0 tx_busy=0 tx_done=0
T=0: prog_mode=0 tx=1 rx=1 data_out=00 wr_en=0 tx_busy=0 tx_done=0
=== Test 1: Activación de eco ===
T=200000: prog_mode=0 tx=1 rx=0 data_out=00 wr_en=0 tx_busy=0 tx_done=0
T=8880000: prog_mode=0 tx=1 rx=1 data_out=00 wr_en=0 tx_busy=0 tx_done=0
T=17560000: prog_mode=0 tx=1 rx=0 data_out=00 wr_en=0 tx_busy=0 tx_done=0
T=60960000: prog_mode=0 tx=1 rx=1 data_out=00 wr_en=0 tx_busy=0 tx_done=0
T=69640000: prog_mode=0 tx=1 rx=0 data_out=00 wr_en=0 tx_busy=0 tx_done=0
T=78320000: prog_mode=0 tx=1 rx=1 data_out=00 wr_en=0 tx_busy=0 tx_done=0
T=82710000: prog_mode=0 tx=1 rx=1 data_out=41 wr_en=1 tx_busy=0 tx_done=0
T=82730000: prog_mode=0 tx=1 rx=1 data_out=41 wr_en=0 tx_busy=0 tx_done=0
T=87000000: prog_mode=0 tx=1 rx=0 data_out=41 wr_en=0 tx_busy=0 tx_done=0
T=113040000: prog_mode=0 tx=1 rx=1 data_out=41 wr_en=0 tx_busy=0 tx_done=0
T=121720000: prog_mode=0 tx=1 rx=0 data_out=41 wr_en=0 tx_busy=0 tx_done=0
T=130400000: prog_mode=0 tx=1 rx=1 data_out=41 wr_en=0 tx_busy=0 tx_done=0
T=139080000: prog_mode=0 tx=1 rx=0 data_out=41 wr_en=0 tx_busy=0 tx_done=0
T=147760000: prog_mode=0 tx=1 rx=1 data_out=41 wr_en=0 tx_busy=0 tx_done=0
T=156440000: prog_mode=0 tx=1 rx=0 data_out=41 wr_en=0 tx_busy=0 tx_done=0
T=165120000: prog_mode=0 tx=1 rx=1 data_out=41 wr_en=0 tx_busy=0 tx_done=0
T=169510000: prog_mode=0 tx=1 rx=1 data_out=54 wr_en=1 tx_busy=0 tx_done=0
T=169530000: prog_mode=0 tx=1 rx=1 data_out=54 wr_en=0 tx_busy=0 tx_done=0
T=173800000: prog_mode=0 tx=1 rx=0 data_out=54 wr_en=0 tx_busy=0 tx_done=0
T=182480000: prog_mode=0 tx=1 rx=1 data_out=54 wr_en=0 tx_busy=0 tx_done=0
T=199840000: prog_mode=0 tx=1 rx=0 data_out=54 wr_en=0 tx_busy=0 tx_done=0
T=208520000: prog_mode=0 tx=1 rx=1 data_out=54 wr_en=0 tx_busy=0 tx_done=0
T=217200000: prog_mode=0 tx=1 rx=0 data_out=54 wr_en=0 tx_busy=0 tx_done=0
T=225880000: prog_mode=0 tx=1 rx=1 data_out=54 wr_en=0 tx_busy=0 tx_done=0
T=234560000: prog_mode=0 tx=1 rx=0 data_out=54 wr_en=0 tx_busy=0 tx_done=0
T=251920000: prog_mode=0 tx=1 rx=1 data_out=54 wr_en=0 tx_busy=0 tx_done=0
T=256310000: prog_mode=0 tx=1 rx=1 data_out=2b wr_en=1 tx_busy=0 tx_done=0
T=256330000: prog_mode=0 tx=1 rx=1 data_out=2b wr_en=0 tx_busy=0 tx_done=0
T=260600000: prog_mode=0 tx=1 rx=0 data_out=2b wr_en=0 tx_busy=0 tx_done=0
T=269280000: prog_mode=0 tx=1 rx=1 data_out=2b wr_en=0 tx_busy=0 tx_done=0
T=277960000: prog_mode=0 tx=1 rx=0 data_out=2b wr_en=0 tx_busy=0 tx_done=0
T=286640000: prog_mode=0 tx=1 rx=1 data_out=2b wr_en=0 tx_busy=0 tx_done=0
T=295320000: prog_mode=0 tx=1 rx=0 data_out=2b wr_en=0 tx_busy=0 tx_done=0
T=321360000: prog_mode=0 tx=1 rx=1 data_out=2b wr_en=0 tx_busy=0 tx_done=0
T=330040000: prog_mode=0 tx=1 rx=0 data_out=2b wr_en=0 tx_busy=0 tx_done=0
T=338720000: prog_mode=0 tx=1 rx=1 data_out=2b wr_en=0 tx_busy=0 tx_done=0
T=343110000: prog_mode=0 tx=1 rx=1 data_out=45 wr_en=1 tx_busy=0 tx_done=0
T=343130000: prog_mode=0 tx=1 rx=1 data_out=45 wr_en=0 tx_busy=0 tx_done=0
T=347400000: prog_mode=0 tx=1 rx=0 data_out=45 wr_en=0 tx_busy=0 tx_done=0
T=356080000: prog_mode=0 tx=1 rx=1 data_out=45 wr_en=0 tx_busy=0 tx_done=0
T=373440000: prog_mode=0 tx=1 rx=0 data_out=45 wr_en=0 tx_busy=0 tx_done=0
T=408160000: prog_mode=0 tx=1 rx=1 data_out=45 wr_en=0 tx_busy=0 tx_done=0
T=416840000: prog_mode=0 tx=1 rx=0 data_out=45 wr_en=0 tx_busy=0 tx_done=0
T=425520000: prog_mode=0 tx=1 rx=1 data_out=45 wr_en=0 tx_busy=0 tx_done=0
T=429910000: prog_mode=0 tx=1 rx=1 data_out=43 wr_en=1 tx_busy=0 tx_done=0
T=429930000: prog_mode=0 tx=1 rx=1 data_out=43 wr_en=0 tx_busy=0 tx_done=0
T=434200000: prog_mode=0 tx=1 rx=0 data_out=43 wr_en=0 tx_busy=0 tx_done=0
T=442880000: prog_mode=0 tx=1 rx=1 data_out=43 wr_en=0 tx_busy=0 tx_done=0
T=451560000: prog_mode=0 tx=1 rx=0 data_out=43 wr_en=0 tx_busy=0 tx_done=0
T=477600000: prog_mode=0 tx=1 rx=1 data_out=43 wr_en=0 tx_busy=0 tx_done=0
T=494960000: prog_mode=0 tx=1 rx=0 data_out=43 wr_en=0 tx_busy=0 tx_done=0
T=512320000: prog_mode=0 tx=1 rx=1 data_out=43 wr_en=0 tx_busy=0 tx_done=0
T=516710000: prog_mode=0 tx=1 rx=1 data_out=31 wr_en=1 tx_busy=0 tx_done=0
T=516730000: prog_mode=0 tx=1 rx=1 data_out=31 wr_en=0 tx_busy=0 tx_done=0
T=516770000: prog_mode=0 tx=1 rx=1 data_out=31 wr_en=0 tx_busy=1 tx_done=0
T=525450000: prog_mode=0 tx=0 rx=1 data_out=31 wr_en=0 tx_busy=1 tx_done=0
T=534130000: prog_mode=0 tx=1 rx=1 data_out=31 wr_en=0 tx_busy=1 tx_done=0
T=542810000: prog_mode=0 tx=0 rx=1 data_out=31 wr_en=0 tx_busy=1 tx_done=0
T=568850000: prog_mode=0 tx=1 rx=1 data_out=31 wr_en=0 tx_busy=1 tx_done=0
T=586210000: prog_mode=0 tx=0 rx=1 data_out=31 wr_en=0 tx_busy=1 tx_done=0
T=603570000: prog_mode=0 tx=1 rx=1 data_out=31 wr_en=0 tx_busy=0 tx_done=1
T=603590000: prog_mode=0 tx=1 rx=1 data_out=31 wr_en=0 tx_busy=0 tx_done=0
T=959450000: prog_mode=0 tx=1 rx=0 data_out=31 wr_en=0 tx_busy=0 tx_done=0
T=976810000: prog_mode=0 tx=1 rx=1 data_out=31 wr_en=0 tx_busy=0 tx_done=0
T=985490000: prog_mode=0 tx=1 rx=0 data_out=31 wr_en=0 tx_busy=0 tx_done=0
T=994170000: prog_mode=0 tx=1 rx=1 data_out=31 wr_en=0 tx_busy=0 tx_done=0
T=1011530000: prog_mode=0 tx=1 rx=0 data_out=31 wr_en=0 tx_busy=0 tx_done=0
T=1020210000: prog_mode=0 tx=1 rx=1 data_out=31 wr_en=0 tx_busy=0 tx_done=0
T=1028890000: prog_mode=0 tx=1 rx=0 data_out=31 wr_en=0 tx_busy=0 tx_done=0
T=1037570000: prog_mode=0 tx=1 rx=1 data_out=31 wr_en=0 tx_busy=0 tx_done=0
T=1041950000: prog_mode=0 tx=1 rx=1 data_out=5a wr_en=1 tx_busy=0 tx_done=0
T=1041970000: prog_mode=0 tx=1 rx=1 data_out=5a wr_en=0 tx_busy=1 tx_done=0
T=1050650000: prog_mode=0 tx=0 rx=1 data_out=5a wr_en=0 tx_busy=1 tx_done=0
T=1068010000: prog_mode=0 tx=1 rx=1 data_out=5a wr_en=0 tx_busy=1 tx_done=0
T=1076690000: prog_mode=0 tx=0 rx=1 data_out=5a wr_en=0 tx_busy=1 tx_done=0
T=1085370000: prog_mode=0 tx=1 rx=1 data_out=5a wr_en=0 tx_busy=1 tx_done=0
T=1102730000: prog_mode=0 tx=0 rx=1 data_out=5a wr_en=0 tx_busy=1 tx_done=0
T=1111410000: prog_mode=0 tx=1 rx=1 data_out=5a wr_en=0 tx_busy=1 tx_done=0
T=1120090000: prog_mode=0 tx=0 rx=1 data_out=5a wr_en=0 tx_busy=1 tx_done=0
T=1128770000: prog_mode=0 tx=1 rx=1 data_out=5a wr_en=0 tx_busy=0 tx_done=1
T=1128790000: prog_mode=0 tx=1 rx=1 data_out=5a wr_en=0 tx_busy=0 tx_done=0
Eco activado correctamente
=== Test 2: Desactivación de eco ===
T=1138450000: prog_mode=0 tx=1 rx=0 data_out=5a wr_en=0 tx_busy=0 tx_done=0
T=1147130000: prog_mode=0 tx=1 rx=1 data_out=5a wr_en=0 tx_busy=0 tx_done=0
T=1155810000: prog_mode=0 tx=1 rx=0 data_out=5a wr_en=0 tx_busy=0 tx_done=0
T=1199210000: prog_mode=0 tx=1 rx=1 data_out=5a wr_en=0 tx_busy=0 tx_done=0
T=1207890000: prog_mode=0 tx=1 rx=0 data_out=5a wr_en=0 tx_busy=0 tx_done=0
T=1216570000: prog_mode=0 tx=1 rx=1 data_out=5a wr_en=0 tx_busy=0 tx_done=0
T=1220950000: prog_mode=0 tx=1 rx=1 data_out=41 wr_en=1 tx_busy=0 tx_done=0
T=1220970000: prog_mode=0 tx=1 rx=1 data_out=41 wr_en=0 tx_busy=1 tx_done=0
T=1225250000: prog_mode=0 tx=1 rx=0 data_out=41 wr_en=0 tx_busy=1 tx_done=0
T=1229650000: prog_mode=0 tx=0 rx=0 data_out=41 wr_en=0 tx_busy=1 tx_done=0
T=1238330000: prog_mode=0 tx=1 rx=0 data_out=41 wr_en=0 tx_busy=1 tx_done=0
T=1247010000: prog_mode=0 tx=0 rx=0 data_out=41 wr_en=0 tx_busy=1 tx_done=0
T=1251290000: prog_mode=0 tx=0 rx=1 data_out=41 wr_en=0 tx_busy=1 tx_done=0
T=1259970000: prog_mode=0 tx=0 rx=0 data_out=41 wr_en=0 tx_busy=1 tx_done=0
T=1268650000: prog_mode=0 tx=0 rx=1 data_out=41 wr_en=0 tx_busy=1 tx_done=0
T=1277330000: prog_mode=0 tx=0 rx=0 data_out=41 wr_en=0 tx_busy=1 tx_done=0
T=1286010000: prog_mode=0 tx=0 rx=1 data_out=41 wr_en=0 tx_busy=1 tx_done=0
T=1290410000: prog_mode=0 tx=1 rx=1 data_out=41 wr_en=0 tx_busy=1 tx_done=0
T=1294690000: prog_mode=0 tx=1 rx=0 data_out=41 wr_en=0 tx_busy=1 tx_done=0
T=1299090000: prog_mode=0 tx=0 rx=0 data_out=41 wr_en=0 tx_busy=1 tx_done=0
T=1303370000: prog_mode=0 tx=0 rx=1 data_out=41 wr_en=0 tx_busy=1 tx_done=0
T=1307750000: prog_mode=0 tx=0 rx=1 data_out=54 wr_en=1 tx_busy=1 tx_done=0
T=1307770000: prog_mode=0 tx=1 rx=1 data_out=54 wr_en=0 tx_busy=0 tx_done=1
T=1307790000: prog_mode=0 tx=1 rx=1 data_out=54 wr_en=0 tx_busy=0 tx_done=0
T=1312050000: prog_mode=0 tx=1 rx=0 data_out=54 wr_en=0 tx_busy=0 tx_done=0
T=1320730000: prog_mode=0 tx=1 rx=1 data_out=54 wr_en=0 tx_busy=0 tx_done=0
T=1338090000: prog_mode=0 tx=1 rx=0 data_out=54 wr_en=0 tx_busy=0 tx_done=0
T=1346770000: prog_mode=0 tx=1 rx=1 data_out=54 wr_en=0 tx_busy=0 tx_done=0
T=1355450000: prog_mode=0 tx=1 rx=0 data_out=54 wr_en=0 tx_busy=0 tx_done=0
T=1364130000: prog_mode=0 tx=1 rx=1 data_out=54 wr_en=0 tx_busy=0 tx_done=0
T=1372810000: prog_mode=0 tx=1 rx=0 data_out=54 wr_en=0 tx_busy=0 tx_done=0
T=1390170000: prog_mode=0 tx=1 rx=1 data_out=54 wr_en=0 tx_busy=0 tx_done=0
T=1394550000: prog_mode=0 tx=1 rx=1 data_out=2b wr_en=1 tx_busy=0 tx_done=0
T=1394570000: prog_mode=0 tx=1 rx=1 data_out=2b wr_en=0 tx_busy=1 tx_done=0
T=1398850000: prog_mode=0 tx=1 rx=0 data_out=2b wr_en=0 tx_busy=1 tx_done=0
T=1403250000: prog_mode=0 tx=0 rx=0 data_out=2b wr_en=0 tx_busy=1 tx_done=0
T=1407530000: prog_mode=0 tx=0 rx=1 data_out=2b wr_en=0 tx_busy=1 tx_done=0
T=1411930000: prog_mode=0 tx=1 rx=1 data_out=2b wr_en=0 tx_busy=1 tx_done=0
T=1416210000: prog_mode=0 tx=1 rx=0 data_out=2b wr_en=0 tx_busy=1 tx_done=0
T=1424890000: prog_mode=0 tx=1 rx=1 data_out=2b wr_en=0 tx_busy=1 tx_done=0
T=1429290000: prog_mode=0 tx=0 rx=1 data_out=2b wr_en=0 tx_busy=1 tx_done=0
T=1433570000: prog_mode=0 tx=0 rx=0 data_out=2b wr_en=0 tx_busy=1 tx_done=0
T=1437970000: prog_mode=0 tx=1 rx=0 data_out=2b wr_en=0 tx_busy=1 tx_done=0
T=1446650000: prog_mode=0 tx=0 rx=0 data_out=2b wr_en=0 tx_busy=1 tx_done=0
T=1455330000: prog_mode=0 tx=1 rx=0 data_out=2b wr_en=0 tx_busy=1 tx_done=0
T=1459610000: prog_mode=0 tx=1 rx=1 data_out=2b wr_en=0 tx_busy=1 tx_done=0
T=1464010000: prog_mode=0 tx=0 rx=1 data_out=2b wr_en=0 tx_busy=1 tx_done=0
T=1468290000: prog_mode=0 tx=0 rx=0 data_out=2b wr_en=0 tx_busy=1 tx_done=0
T=1476970000: prog_mode=0 tx=0 rx=1 data_out=2b wr_en=0 tx_busy=1 tx_done=0
T=1481350000: prog_mode=0 tx=0 rx=1 data_out=45 wr_en=1 tx_busy=1 tx_done=0
T=1481370000: prog_mode=0 tx=1 rx=1 data_out=45 wr_en=0 tx_busy=0 tx_done=1
T=1481390000: prog_mode=0 tx=1 rx=1 data_out=45 wr_en=0 tx_busy=0 tx_done=0
T=1485650000: prog_mode=0 tx=1 rx=0 data_out=45 wr_en=0 tx_busy=0 tx_done=0
T=1494330000: prog_mode=0 tx=1 rx=1 data_out=45 wr_en=0 tx_busy=0 tx_done=0
T=1511690000: prog_mode=0 tx=1 rx=0 data_out=45 wr_en=0 tx_busy=0 tx_done=0
T=1546410000: prog_mode=0 tx=1 rx=1 data_out=45 wr_en=0 tx_busy=0 tx_done=0
T=1555090000: prog_mode=0 tx=1 rx=0 data_out=45 wr_en=0 tx_busy=0 tx_done=0
T=1563770000: prog_mode=0 tx=1 rx=1 data_out=45 wr_en=0 tx_busy=0 tx_done=0
T=1568150000: prog_mode=0 tx=1 rx=1 data_out=43 wr_en=1 tx_busy=0 tx_done=0
T=1568170000: prog_mode=0 tx=1 rx=1 data_out=43 wr_en=0 tx_busy=1 tx_done=0
T=1572450000: prog_mode=0 tx=1 rx=0 data_out=43 wr_en=0 tx_busy=1 tx_done=0
T=1576850000: prog_mode=0 tx=0 rx=0 data_out=43 wr_en=0 tx_busy=1 tx_done=0
T=1585530000: prog_mode=0 tx=1 rx=0 data_out=43 wr_en=0 tx_busy=1 tx_done=0
T=1602890000: prog_mode=0 tx=0 rx=0 data_out=43 wr_en=0 tx_busy=1 tx_done=0
T=1615850000: prog_mode=0 tx=0 rx=1 data_out=43 wr_en=0 tx_busy=1 tx_done=0
T=1633210000: prog_mode=0 tx=0 rx=0 data_out=43 wr_en=0 tx_busy=1 tx_done=0
T=1637610000: prog_mode=0 tx=1 rx=0 data_out=43 wr_en=0 tx_busy=1 tx_done=0
T=1646290000: prog_mode=0 tx=0 rx=0 data_out=43 wr_en=0 tx_busy=1 tx_done=0
T=1650570000: prog_mode=0 tx=0 rx=1 data_out=43 wr_en=0 tx_busy=1 tx_done=0
T=1654950000: prog_mode=0 tx=0 rx=1 data_out=30 wr_en=1 tx_busy=1 tx_done=0
T=1654970000: prog_mode=0 tx=1 rx=1 data_out=30 wr_en=0 tx_busy=0 tx_done=1
T=1654990000: prog_mode=0 tx=1 rx=1 data_out=30 wr_en=0 tx_busy=0 tx_done=0
T=1655010000: prog_mode=0 tx=1 rx=1 data_out=30 wr_en=0 tx_busy=1 tx_done=0
T=1663690000: prog_mode=0 tx=0 rx=1 data_out=30 wr_en=0 tx_busy=1 tx_done=0
T=1707090000: prog_mode=0 tx=1 rx=1 data_out=30 wr_en=0 tx_busy=1 tx_done=0
T=1724450000: prog_mode=0 tx=0 rx=1 data_out=30 wr_en=0 tx_busy=1 tx_done=0
T=1741810000: prog_mode=0 tx=1 rx=1 data_out=30 wr_en=0 tx_busy=0 tx_done=1
T=1741830000: prog_mode=0 tx=1 rx=1 data_out=30 wr_en=0 tx_busy=0 tx_done=0
T=1924090000: prog_mode=0 tx=1 rx=0 data_out=30 wr_en=0 tx_busy=0 tx_done=0
T=1958810000: prog_mode=0 tx=1 rx=1 data_out=30 wr_en=0 tx_busy=0 tx_done=0
T=1976170000: prog_mode=0 tx=1 rx=0 data_out=30 wr_en=0 tx_busy=0 tx_done=0
T=1984850000: prog_mode=0 tx=1 rx=1 data_out=30 wr_en=0 tx_busy=0 tx_done=0
T=1993530000: prog_mode=0 tx=1 rx=0 data_out=30 wr_en=0 tx_busy=0 tx_done=0
T=2002210000: prog_mode=0 tx=1 rx=1 data_out=30 wr_en=0 tx_busy=0 tx_done=0
T=2006590000: prog_mode=0 tx=1 rx=1 data_out=58 wr_en=1 tx_busy=0 tx_done=0
T=2006610000: prog_mode=0 tx=1 rx=1 data_out=58 wr_en=0 tx_busy=0 tx_done=0
Eco desactivado correctamente
=== Test 3: Entrada a modo programación ===
T=2098690000: prog_mode=0 tx=1 rx=0 data_out=58 wr_en=0 tx_busy=0 tx_done=0
T=2107370000: prog_mode=0 tx=1 rx=1 data_out=58 wr_en=0 tx_busy=0 tx_done=0
T=2116050000: prog_mode=0 tx=1 rx=0 data_out=58 wr_en=0 tx_busy=0 tx_done=0
T=2124730000: prog_mode=0 tx=1 rx=1 data_out=58 wr_en=0 tx_busy=0 tx_done=0
T=2133410000: prog_mode=0 tx=1 rx=0 data_out=58 wr_en=0 tx_busy=0 tx_done=0
T=2150770000: prog_mode=0 tx=1 rx=1 data_out=58 wr_en=0 tx_busy=0 tx_done=0
T=2159450000: prog_mode=0 tx=1 rx=0 data_out=58 wr_en=0 tx_busy=0 tx_done=0
T=2168130000: prog_mode=0 tx=1 rx=1 data_out=58 wr_en=0 tx_busy=0 tx_done=0
T=2181190000: prog_mode=0 tx=1 rx=1 data_out=a5 wr_en=1 tx_busy=0 tx_done=0
T=2181210000: prog_mode=0 tx=1 rx=1 data_out=a5 wr_en=0 tx_busy=0 tx_done=0
T=2185490000: prog_mode=0 tx=1 rx=0 data_out=a5 wr_en=0 tx_busy=0 tx_done=0
T=2202850000: prog_mode=0 tx=1 rx=1 data_out=a5 wr_en=0 tx_busy=0 tx_done=0
T=2211530000: prog_mode=0 tx=1 rx=0 data_out=a5 wr_en=0 tx_busy=0 tx_done=0
T=2220210000: prog_mode=0 tx=1 rx=1 data_out=a5 wr_en=0 tx_busy=0 tx_done=0
T=2237570000: prog_mode=0 tx=1 rx=0 data_out=a5 wr_en=0 tx_busy=0 tx_done=0
T=2246250000: prog_mode=0 tx=1 rx=1 data_out=a5 wr_en=0 tx_busy=0 tx_done=0
T=2254930000: prog_mode=0 tx=1 rx=0 data_out=a5 wr_en=0 tx_busy=0 tx_done=0
T=2263610000: prog_mode=0 tx=1 rx=1 data_out=a5 wr_en=0 tx_busy=0 tx_done=0
T=2267990000: prog_mode=0 tx=1 rx=1 data_out=5a wr_en=1 tx_busy=0 tx_done=0
T=2268010000: prog_mode=0 tx=1 rx=1 data_out=5a wr_en=0 tx_busy=0 tx_done=0
T=2272290000: prog_mode=0 tx=1 rx=0 data_out=5a wr_en=0 tx_busy=0 tx_done=0
T=2280970000: prog_mode=0 tx=1 rx=1 data_out=5a wr_en=0 tx_busy=0 tx_done=0
T=2298330000: prog_mode=0 tx=1 rx=0 data_out=5a wr_en=0 tx_busy=0 tx_done=0
T=2333050000: prog_mode=0 tx=1 rx=1 data_out=5a wr_en=0 tx_busy=0 tx_done=0
T=2354790000: prog_mode=0 tx=1 rx=1 data_out=c3 wr_en=1 tx_busy=0 tx_done=0
T=2354810000: prog_mode=0 tx=1 rx=1 data_out=c3 wr_en=0 tx_busy=0 tx_done=0
T=2359090000: prog_mode=0 tx=1 rx=0 data_out=c3 wr_en=0 tx_busy=0 tx_done=0
T=2385130000: prog_mode=0 tx=1 rx=1 data_out=c3 wr_en=0 tx_busy=0 tx_done=0
T=2419850000: prog_mode=0 tx=1 rx=0 data_out=c3 wr_en=0 tx_busy=0 tx_done=0
T=2437210000: prog_mode=0 tx=1 rx=1 data_out=c3 wr_en=0 tx_busy=0 tx_done=0
T=2441590000: prog_mode=0 tx=1 rx=1 data_out=3c wr_en=1 tx_busy=0 tx_done=0
T=2441610000: prog_mode=0 tx=1 rx=1 data_out=3c wr_en=0 tx_busy=0 tx_done=0
T=2441650000: prog_mode=1 tx=1 rx=1 data_out=3c wr_en=0 tx_busy=0 tx_done=0
T=2441670000: prog_mode=1 tx=1 rx=1 data_out=3c wr_en=0 tx_busy=1 tx_done=0
T=2450350000: prog_mode=1 tx=0 rx=1 data_out=3c wr_en=0 tx_busy=1 tx_done=0
T=2493750000: prog_mode=1 tx=1 rx=1 data_out=3c wr_en=0 tx_busy=1 tx_done=0
T=2502430000: prog_mode=1 tx=0 rx=1 data_out=3c wr_en=0 tx_busy=1 tx_done=0
T=2511110000: prog_mode=1 tx=1 rx=1 data_out=3c wr_en=0 tx_busy=1 tx_done=0
T=2519790000: prog_mode=1 tx=0 rx=1 data_out=3c wr_en=0 tx_busy=1 tx_done=0
T=2528470000: prog_mode=1 tx=1 rx=1 data_out=3c wr_en=0 tx_busy=0 tx_done=1
T=2528490000: prog_mode=1 tx=1 rx=1 data_out=3c wr_en=0 tx_busy=0 tx_done=0
Modo programación activado correctamente
=== Test 4: Transmisión en modo programación ===
T=3058950000: prog_mode=1 tx=1 rx=1 data_out=3c wr_en=0 tx_busy=1 tx_done=0
T=3067630000: prog_mode=1 tx=0 rx=1 data_out=3c wr_en=0 tx_busy=1 tx_done=0
T=3076310000: prog_mode=1 tx=1 rx=1 data_out=3c wr_en=0 tx_busy=1 tx_done=0
T=3084990000: prog_mode=1 tx=0 rx=1 data_out=3c wr_en=0 tx_busy=1 tx_done=0
T=3128390000: prog_mode=1 tx=1 rx=1 data_out=3c wr_en=0 tx_busy=1 tx_done=0
T=3137070000: prog_mode=1 tx=0 rx=1 data_out=3c wr_en=0 tx_busy=1 tx_done=0
T=3145750000: prog_mode=1 tx=1 rx=1 data_out=3c wr_en=0 tx_busy=1 tx_done=0
T=3154430000: prog_mode=1 tx=0 rx=1 data_out=3c wr_en=0 tx_busy=1 tx_done=0
T=3180470000: prog_mode=1 tx=1 rx=1 data_out=3c wr_en=0 tx_busy=1 tx_done=0
T=3197830000: prog_mode=1 tx=0 rx=1 data_out=3c wr_en=0 tx_busy=1 tx_done=0
T=3215190000: prog_mode=1 tx=1 rx=1 data_out=3c wr_en=0 tx_busy=1 tx_done=0
T=3223870000: prog_mode=1 tx=0 rx=1 data_out=3c wr_en=0 tx_busy=1 tx_done=0
T=3232550000: prog_mode=1 tx=1 rx=1 data_out=3c wr_en=0 tx_busy=1 tx_done=0
T=3241230000: prog_mode=1 tx=0 rx=1 data_out=3c wr_en=0 tx_busy=1 tx_done=0
T=3249910000: prog_mode=1 tx=1 rx=1 data_out=3c wr_en=0 tx_busy=1 tx_done=0
T=3284630000: prog_mode=1 tx=0 rx=1 data_out=3c wr_en=0 tx_busy=1 tx_done=0
T=3301990000: prog_mode=1 tx=1 rx=1 data_out=3c wr_en=0 tx_busy=1 tx_done=0
T=3310670000: prog_mode=1 tx=0 rx=1 data_out=3c wr_en=0 tx_busy=1 tx_done=0
T=3319350000: prog_mode=1 tx=1 rx=1 data_out=3c wr_en=0 tx_busy=1 tx_done=0
T=3328030000: prog_mode=1 tx=0 rx=1 data_out=3c wr_en=0 tx_busy=1 tx_done=0
T=3362750000: prog_mode=1 tx=1 rx=1 data_out=3c wr_en=0 tx_busy=1 tx_done=0
T=3371430000: prog_mode=1 tx=0 rx=1 data_out=3c wr_en=0 tx_busy=1 tx_done=0
T=3388790000: prog_mode=1 tx=1 rx=1 data_out=3c wr_en=0 tx_busy=1 tx_done=0
T=3397470000: prog_mode=1 tx=0 rx=1 data_out=3c wr_en=0 tx_busy=1 tx_done=0
T=3406150000: prog_mode=1 tx=1 rx=1 data_out=3c wr_en=0 tx_busy=0 tx_done=1
T=3406170000: prog_mode=1 tx=1 rx=1 data_out=3c wr_en=0 tx_busy=0 tx_done=0
Transmisión en modo programación completada
=== Test 5: Salida de modo programación ===
T=3407150000: prog_mode=1 tx=1 rx=0 data_out=3c wr_en=0 tx_busy=0 tx_done=0
T=3485270000: prog_mode=1 tx=1 rx=1 data_out=3c wr_en=0 tx_busy=0 tx_done=0
T=3489650000: prog_mode=1 tx=1 rx=1 data_out=00 wr_en=1 tx_busy=0 tx_done=0
T=3489670000: prog_mode=1 tx=1 rx=1 data_out=00 wr_en=0 tx_busy=0 tx_done=0
T=3493950000: prog_mode=1 tx=1 rx=0 data_out=00 wr_en=0 tx_busy=0 tx_done=0
T=3572070000: prog_mode=1 tx=1 rx=1 data_out=00 wr_en=0 tx_busy=0 tx_done=0
T=3576450000: prog_mode=1 tx=1 rx=1 data_out=00 wr_en=1 tx_busy=0 tx_done=0
T=3576470000: prog_mode=1 tx=1 rx=1 data_out=00 wr_en=0 tx_busy=0 tx_done=0
T=3580750000: prog_mode=1 tx=1 rx=0 data_out=00 wr_en=0 tx_busy=0 tx_done=0
T=3658870000: prog_mode=1 tx=1 rx=1 data_out=00 wr_en=0 tx_busy=0 tx_done=0
T=3663250000: prog_mode=1 tx=1 rx=1 data_out=00 wr_en=1 tx_busy=0 tx_done=0
T=3663270000: prog_mode=1 tx=1 rx=1 data_out=00 wr_en=0 tx_busy=0 tx_done=0
T=3667550000: prog_mode=1 tx=1 rx=0 data_out=00 wr_en=0 tx_busy=0 tx_done=0
T=3745670000: prog_mode=1 tx=1 rx=1 data_out=00 wr_en=0 tx_busy=0 tx_done=0
T=3750050000: prog_mode=1 tx=1 rx=1 data_out=00 wr_en=1 tx_busy=0 tx_done=0
T=3750070000: prog_mode=1 tx=1 rx=1 data_out=00 wr_en=0 tx_busy=0 tx_done=0
T=3750110000: prog_mode=0 tx=1 rx=1 data_out=00 wr_en=0 tx_busy=0 tx_done=0
T=3750130000: prog_mode=0 tx=1 rx=1 data_out=00 wr_en=0 tx_busy=1 tx_done=0
T=3758810000: prog_mode=0 tx=0 rx=1 data_out=00 wr_en=0 tx_busy=1 tx_done=0
T=3767490000: prog_mode=0 tx=1 rx=1 data_out=00 wr_en=0 tx_busy=1 tx_done=0
T=3776170000: prog_mode=0 tx=0 rx=1 data_out=00 wr_en=0 tx_busy=1 tx_done=0
T=3784850000: prog_mode=0 tx=1 rx=1 data_out=00 wr_en=0 tx_busy=1 tx_done=0
T=3793530000: prog_mode=0 tx=0 rx=1 data_out=00 wr_en=0 tx_busy=1 tx_done=0
T=3819570000: prog_mode=0 tx=1 rx=1 data_out=00 wr_en=0 tx_busy=1 tx_done=0
T=3828250000: prog_mode=0 tx=0 rx=1 data_out=00 wr_en=0 tx_busy=1 tx_done=0
T=3836930000: prog_mode=0 tx=1 rx=1 data_out=00 wr_en=0 tx_busy=0 tx_done=1
T=3836950000: prog_mode=0 tx=1 rx=1 data_out=00 wr_en=0 tx_busy=0 tx_done=0
Modo programación desactivado correctamente
=== Todos los tests completados exitosamente ===
$finish called at time : 4280610 ns : File "C:/Users/Ciudad Maderas/Documents/GCPU_implementation-/ALU/ALU.srcs/sim_1/new/UART_TB.v" Line 207
T=0: prog_mode=0 tx=1 rx=1 data_out=00 wr_en=0 tx_busy=0 tx_done=0
=== Test 1: Activación de eco ===
T=200000: prog_mode=0 tx=1 rx=0 data_out=00 wr_en=0 tx_busy=0 tx_done=0
T=8880000: prog_mode=0 tx=1 rx=1 data_out=00 wr_en=0 tx_busy=0 tx_done=0
T=17560000: prog_mode=0 tx=1 rx=0 data_out=00 wr_en=0 tx_busy=0 tx_done=0
T=60960000: prog_mode=0 tx=1 rx=1 data_out=00 wr_en=0 tx_busy=0 tx_done=0
T=69640000: prog_mode=0 tx=1 rx=0 data_out=00 wr_en=0 tx_busy=0 tx_done=0
T=78320000: prog_mode=0 tx=1 rx=1 data_out=00 wr_en=0 tx_busy=0 tx_done=0
T=82710000: prog_mode=0 tx=1 rx=1 data_out=41 wr_en=1 tx_busy=0 tx_done=0
T=82730000: prog_mode=0 tx=1 rx=1 data_out=41 wr_en=0 tx_busy=0 tx_done=0
T=87000000: prog_mode=0 tx=1 rx=0 data_out=41 wr_en=0 tx_busy=0 tx_done=0
T=113040000: prog_mode=0 tx=1 rx=1 data_out=41 wr_en=0 tx_busy=0 tx_done=0
T=121720000: prog_mode=0 tx=1 rx=0 data_out=41 wr_en=0 tx_busy=0 tx_done=0
T=130400000: prog_mode=0 tx=1 rx=1 data_out=41 wr_en=0 tx_busy=0 tx_done=0
T=139080000: prog_mode=0 tx=1 rx=0 data_out=41 wr_en=0 tx_busy=0 tx_done=0
